\relax 
\@writefile{toc}{\contentsline {section}{\numberline {1}Exercice « Mise en place »}{1}\protected@file@percent }
\@writefile{toc}{\contentsline {section}{\numberline {2}question1}{1}\protected@file@percent }
\@writefile{toc}{\contentsline {section}{\numberline {3}question2}{1}\protected@file@percent }
\@writefile{toc}{\contentsline {section}{\numberline {4}question3}{1}\protected@file@percent }
\@writefile{toc}{\contentsline {section}{\numberline {5}question4}{1}\protected@file@percent }
\@writefile{toc}{\contentsline {section}{\numberline {6}question5}{1}\protected@file@percent }
\@writefile{lol}{\contentsline {lstlisting}{.gitignore}{1}\protected@file@percent }
